{
    "J0613-0200": "TM,WN_fix,RN,RN_idx-2_nb-100",
    "J0751+1807": "TM,WN_fix,RN,RN_idx-2_nb-100",
    "J0900-3144": "TM,WN_fix,RN,RN_idx-2_nb-100",
    "J0030+0451": "TM,WN_fix,RN,RN_idx-2_nb-100",
    "J1012+5307": "TM,WN_fix,RN,RN_idx-2_nb-100",
    "J1022+1001": "TM,WN_fix,RN,RN_idx-2_nb-100",
    "J1024-0719": "TM,WN_fix,RN,RN_idx-2_nb-100",
    "J1455-3330": "TM,WN_fix,RN,RN_idx-2_nb-100",
    "J1600-3053": "TM,WN_fix,RN,RN_idx-2_nb-100",
    "J1640+2224": "TM,WN_fix,RN,RN_idx-2_nb-100",
    "J1713+0747": "TM,WN_fix,RN,RN_idx-2_nb-100",
    "J1730-2304": "TM,WN_fix,RN,RN_idx-2_nb-100",
    "J1738+0333": "TM,WN_fix,RN,RN_idx-2_nb-100",
    "J1744-1134": "TM,WN_fix,RN,RN_idx-2_nb-100",
    "J1801-1417": "TM,WN_fix,RN,RN_idx-2_nb-100",
    "J1804-2717": "TM,WN_fix,RN,RN_idx-2_nb-100",
    "J1843-1113": "TM,WN_fix,RN,RN_idx-2_nb-100",
    "J1857+0943": "TM,WN_fix,RN,RN_idx-2_nb-100",
    "J1909-3744": "TM,WN_fix,RN,RN_idx-2_nb-100",
    "J1910+1256": "TM,WN_fix,RN,RN_idx-2_nb-100",
    "J1911+1347": "TM,WN_fix,RN,RN_idx-2_nb-100",
    "J1918-0642": "TM,WN_fix,RN,RN_idx-2_nb-100",
    "J2124-3358": "TM,WN_fix,RN,RN_idx-2_nb-100",
    "J2322+2057": "TM,WN_fix,RN,RN_idx-2_nb-100"
}